…
``` r
split_words <- octordle_words %>%
    tibble(words=.) %>%
    # This map() call inside of mutate() creates a second column of a special form: a list-column. Instead of
    # a column where each entry is a single value, it's a column where each row holds a five-character vector.
    mutate(letters=map(words, ~str_split(.x, "")[[1]]))

split_words
```

    ## # A tibble: 10,657 x 2
    ##    words letters  
    ##    <chr> <list>   
    ##  1 aahed <chr [5]>
    ##  2 aalii <chr [5]>
    ##  3 aargh <chr [5]>
    ##  4 aarti <chr [5]>
    ##  5 abaca <chr [5]>
    ##  6 abaci <chr [5]>
    ##  7 abacs <chr [5]>
    ##  8 abaft <chr [5]>
    ##  9 abaka <chr [5]>
    ## 10 abamp <chr [5]>
    ## # ... with 10,647 more rows
…
What are the words in the dictionary that contain only those letters and
no duplicates?

``` r
best_words <- split_words %>%
    filter(map_lgl(letters, ~all(.x %in% best_letters)),
           map_int(letters, ~max(table(.x)))==1)

best_words
```

    ## # A tibble: 2,331 x 2
    ##    words letters  
    ##    <chr> <list>   
    ##  1 acers <chr [5]>
    ##  2 acids <chr [5]>
    ##  3 acidy <chr [5]>
    ##  4 acmes <chr [5]>
    ##  5 acned <chr [5]>
    ##  6 acnes <chr [5]>
    ##  7 acold <chr [5]>
    ##  8 acred <chr [5]>
    ##  9 acres <chr [5]>
    ## 10 acros <chr [5]>
    ## # ... with 2,321 more rows
…
``` r
cleaned_openers <- opener_combinations %>%
    mutate(opener_id=row_number(), .before="word_1") %>%
    pivot_longer(cols=starts_with("word"),
                 names_to="word_num",
                 values_to="letters") %>%
    unnest(letters) %>%
    group_by(opener_id, word_num) %>%
    mutate(letter_position=row_number()) %>%
    ungroup()
```

This pivot/unnest combination has transformed this:

    ## # A tibble: 27,154 x 3
    ##    word_1    word_2    word_3   
    ##    <list>    <list>    <list>   
    ##  1 <chr [5]> <chr [5]> <chr [5]>
    ##  2 <chr [5]> <chr [5]> <chr [5]>
    ##  3 <chr [5]> <chr [5]> <chr [5]>
    ##  4 <chr [5]> <chr [5]> <chr [5]>
    ##  5 <chr [5]> <chr [5]> <chr [5]>
    ##  6 <chr [5]> <chr [5]> <chr [5]>
    ##  7 <chr [5]> <chr [5]> <chr [5]>
    ##  8 <chr [5]> <chr [5]> <chr [5]>
    ##  9 <chr [5]> <chr [5]> <chr [5]>
    ## 10 <chr [5]> <chr [5]> <chr [5]>
    ## # ... with 27,144 more rows

into this:

    ## # A tibble: 407,310 x 4
    ##    opener_id word_num letters letter_position
    ##        <int> <chr>    <chr>             <int>
    ##  1         1 word_1   a                     1
    ##  2         1 word_1   c                     2
    ##  3         1 word_1   e                     3
    ##  4         1 word_1   r                     4
    ##  5         1 word_1   s                     5
    ##  6         1 word_2   d                     1
    ##  7         1 word_2   u                     2
    ##  8         1 word_2   p                     3
    ##  9         1 word_2   l                     4
    ## 10         1 word_2   y                     5
    ## # ... with 407,300 more rows
…
``` r
best_letters_positions <- split_words %>%
    unnest(letters) %>%
    group_by(words) %>%
    mutate(letter_position=row_number()) %>%
    ungroup() %>%
    group_by(letters, letter_position) %>%
    summarize(position_count=n(), .groups="drop") %>%
    filter(letters %in% best_letters)

best_letters_positions
```

    ## # A tibble: 75 x 3
    ##    letters letter_position position_count
    ##    <chr>             <int>          <int>
    ##  1 a                     1            596
    ##  2 a                     2           1959
    ##  3 a                     3            929
    ##  4 a                     4            911
    ##  5 a                     5            616
    ##  6 c                     1            724
    ##  7 c                     2            136
    ##  8 c                     3            336
    ##  9 c                     4            259
    ## 10 c                     5             96
    ## # ... with 65 more rows
…
